%YAML 1.1
%TAG !u! tag:unity3d.com,2011:
--- !u!114 &11400000
MonoBehaviour:
  m_ObjectHideFlags: 0
  m_PrefabParentObject: {fileID: 0}
  m_PrefabInternal: {fileID: 0}
  m_GameObject: {fileID: 0}
  m_Enabled: 1
  m_EditorHideFlags: 0
  m_Script: {fileID: 11500000, guid: f8f5479cac1d14e57a48bf2c7f5462df, type: 3}
  m_Name: Fire Charge
  m_EditorClassIdentifier: 
  description: A ball of magic.
  effects:
  - {fileID: 11400000, guid: a6a2186fad7b64f55974457176e8a3df, type: 2}
  damage: 1
  condition: 1
  prefab: {fileID: 0}
  range: 10
  speed: .100000001
