%YAML 1.1
%TAG !u! tag:unity3d.com,2011:
--- !u!114 &11400000
MonoBehaviour:
  m_ObjectHideFlags: 0
  m_PrefabParentObject: {fileID: 0}
  m_PrefabInternal: {fileID: 0}
  m_GameObject: {fileID: 0}
  m_Enabled: 1
  m_EditorHideFlags: 0
  m_Script: {fileID: 11500000, guid: 7726eaf7eedf04c7e9bfee381bb41110, type: 3}
  m_Name: Neato Sword
  m_EditorClassIdentifier: 
  description: Hell's toothpick.
  cost: 50
  effectsData:
  - {fileID: 11400000, guid: a6a2186fad7b64f55974457176e8a3df, type: 2}
  - {fileID: 11400000, guid: ba2644c881ca04b14a08153dfe45e640, type: 2}
  damage: 30
  projectile: {fileID: 11400000, guid: 804a3708ab826482aa34da528e891108, type: 2}
  range: 1.5
  duration: .100000001
  durability: 1
  angle: 45
