%YAML 1.1
%TAG !u! tag:unity3d.com,2011:
--- !u!114 &11400000
MonoBehaviour:
  m_ObjectHideFlags: 0
  m_PrefabParentObject: {fileID: 0}
  m_PrefabInternal: {fileID: 0}
  m_GameObject: {fileID: 0}
  m_Enabled: 1
  m_EditorHideFlags: 0
  m_Script: {fileID: 11500000, guid: a3ef762f0d4eb4dcabf7343f56756d1e, type: 3}
  m_Name: Baddie
  m_EditorClassIdentifier: 
  description: Not cool.
  attackInterval: 2
  speed: 1
  acceleration: 1
  weaponData: {fileID: 11400000, guid: e9297c983ec3a4286b516cf55c9485c0, type: 2}
  armorData: {fileID: 11400000, guid: d96a1fcbb0f2442e090a1113c4bbb67b, type: 2}
