%YAML 1.1
%TAG !u! tag:unity3d.com,2011:
--- !u!114 &11400000
MonoBehaviour:
  m_ObjectHideFlags: 0
  m_PrefabParentObject: {fileID: 0}
  m_PrefabInternal: {fileID: 0}
  m_GameObject: {fileID: 0}
  m_Enabled: 1
  m_EditorHideFlags: 0
  m_Script: {fileID: 11500000, guid: a3ef762f0d4eb4dcabf7343f56756d1e, type: 3}
  m_Name: Hero
  m_EditorClassIdentifier: 
  description: The 17 year old spender of her uncle's money.
  attackInterval: 2
  speed: 5
  acceleration: 5
  weaponData: {fileID: 11400000, guid: 6f2288da9c563470f8e2339e8a10b399, type: 2}
  armorData: {fileID: 11400000, guid: d96a1fcbb0f2442e090a1113c4bbb67b, type: 2}
