%YAML 1.1
%TAG !u! tag:unity3d.com,2011:
--- !u!114 &11400000
MonoBehaviour:
  m_ObjectHideFlags: 0
  m_PrefabParentObject: {fileID: 0}
  m_PrefabInternal: {fileID: 0}
  m_GameObject: {fileID: 0}
  m_Enabled: 1
  m_EditorHideFlags: 0
  m_Script: {fileID: 11500000, guid: 855f4b09da41d49fdb03bfb28ffab753, type: 3}
  m_Name: Uncle's Card
  m_EditorClassIdentifier: 
  description: Your uncle's card.
  balance: 0
  limit: 100
  rate: .25
  absMinPay: 15
  minPayPct: .00999999978
