%YAML 1.1
%TAG !u! tag:unity3d.com,2011:
--- !u!114 &11400000
MonoBehaviour:
  m_ObjectHideFlags: 0
  m_PrefabParentObject: {fileID: 0}
  m_PrefabInternal: {fileID: 0}
  m_GameObject: {fileID: 0}
  m_Enabled: 1
  m_EditorHideFlags: 0
  m_Script: {fileID: 11500000, guid: 04a57b7546ff24b86b0aa66626821888, type: 3}
  m_Name: Kinda Hot
  m_EditorClassIdentifier: 
  description: Has a low chance of burning things.
  effectType: 1
  chance: .100000001
  duration: 3
  damagePerSecond: .100000001
  knockBack: 0
  moveSpeedChange: 0
